{
  "version": 1,
  "root": {
    "ref": "o:1",
    "type": "t:1"
  },
  "objects": {
    "o:1": {
      "barcode": "Geoffery10.Leticia",
      "title": "Leticia",
      "description": "",
      "unlockable": false,
      "redacted": false,
      "author": "Geoffery10",
      "version": "1.0.0",
      "sdkVersion": "0.3.7-1748",
      "internal": false,
      "crates": [
        {
          "ref": "o:2",
          "type": "t:2"
        },
        {
          "ref": "o:3",
          "type": "t:2"
        },
        {
          "ref": "o:4",
          "type": "t:2"
        }
      ],
      "tags": [],
      "changelogs": [],
      "isa": {
        "type": "t:1"
      }
    },
    "o:2": {
      "barcode": "Geoffery10.Leticia.Avatar.Leticia",
      "title": "Leticia",
      "description": "",
      "unlockable": false,
      "redacted": false,
      "mainAsset": "882aa49b4ce52e545b1620eda7dff254",
      "tags": [
        "Anime",
        "VRChat"
      ],
      "packedAssets": [
        {
          "title": "PreviewMesh",
          "guid": "073f2c310c58033488221dc6f28c20ee"
        }
      ],
      "colliderBounds": {
        "center": {
          "x": 0.0,
          "y": 0.0,
          "z": 0.0
        },
        "extents": {
          "x": 0.0,
          "y": 0.0,
          "z": 0.0
        }
      },
      "isa": {
        "type": "t:2"
      }
    },
    "o:3": {
      "barcode": "Geoffery10.Leticia.Avatar.LeticiaTall",
      "title": "Leticia (Tall)",
      "description": "",
      "unlockable": false,
      "redacted": false,
      "mainAsset": "90aea6715a7e8bd4b82106369c8af8a7",
      "tags": [],
      "packedAssets": [
        {
          "title": "PreviewMesh",
          "guid": "f2204580f9e16a147ba0709cdd2270e4"
        }
      ],
      "colliderBounds": {
        "center": {
          "x": 0.0,
          "y": 0.0,
          "z": 0.0
        },
        "extents": {
          "x": 0.0,
          "y": 0.0,
          "z": 0.0
        }
      },
      "isa": {
        "type": "t:2"
      }
    },
    "o:4": {
      "barcode": "Geoffery10.Leticia.Avatar.LeticiaGiantess",
      "title": "Leticia (Giantess)",
      "description": "",
      "unlockable": false,
      "redacted": false,
      "mainAsset": "f1eec7b34ec56484fbdeeeec97cd62f5",
      "tags": [],
      "packedAssets": [
        {
          "title": "PreviewMesh",
          "guid": "3cee50fdc97cb2645ae14d01f05aa747"
        }
      ],
      "colliderBounds": {
        "center": {
          "x": 0.0,
          "y": 0.0,
          "z": 0.0
        },
        "extents": {
          "x": 0.0,
          "y": 0.0,
          "z": 0.0
        }
      },
      "isa": {
        "type": "t:2"
      }
    }
  },
  "types": {
    "t:1": {
      "type": "t:1",
      "fullname": "SLZ.Marrow.Warehouse.Pallet, SLZ.Marrow.SDK, Version=0.0.0.0, Culture=neutral, PublicKeyToken=null"
    },
    "t:2": {
      "type": "t:2",
      "fullname": "SLZ.Marrow.Warehouse.AvatarCrate, SLZ.Marrow.SDK, Version=0.0.0.0, Culture=neutral, PublicKeyToken=null"
    }
  }
}