{
  "version": 1,
  "root": {
    "ref": "o:1",
    "type": "t:1"
  },
  "objects": {
    "o:1": {
      "barcode": "Geoffery10.Sakura",
      "title": "Sakura",
      "description": "",
      "unlockable": false,
      "redacted": false,
      "author": "Geoffery10",
      "version": "4.4.1",
      "sdkVersion": "0.3.7-1748",
      "internal": false,
      "crates": [
        {
          "ref": "o:2",
          "type": "t:2"
        },
        {
          "ref": "o:3",
          "type": "t:2"
        },
        {
          "ref": "o:4",
          "type": "t:2"
        },
        {
          "ref": "o:5",
          "type": "t:2"
        },
        {
          "ref": "o:6",
          "type": "t:2"
        },
        {
          "ref": "o:7",
          "type": "t:2"
        },
        {
          "ref": "o:8",
          "type": "t:2"
        },
        {
          "ref": "o:9",
          "type": "t:2"
        },
        {
          "ref": "o:10",
          "type": "t:2"
        },
        {
          "ref": "o:11",
          "type": "t:2"
        },
        {
          "ref": "o:12",
          "type": "t:2"
        }
      ],
      "tags": [],
      "changelogs": [],
      "isa": {
        "type": "t:1"
      }
    },
    "o:2": {
      "barcode": "Geoffery10.Sakura.Avatar.SakuraXP",
      "title": "Sakura (XP)",
      "description": "",
      "unlockable": false,
      "redacted": false,
      "mainAsset": "d444c4efb136e344881beeb7332bb4e4",
      "tags": [
        "Anime",
        "VRChat"
      ],
      "packedAssets": [
        {
          "title": "PreviewMesh",
          "guid": "0668e86d451a9a54194eb43c00015c2b"
        }
      ],
      "colliderBounds": {
        "center": {
          "x": 0.0,
          "y": 0.0,
          "z": 0.0
        },
        "extents": {
          "x": 0.0,
          "y": 0.0,
          "z": 0.0
        }
      },
      "isa": {
        "type": "t:2"
      }
    },
    "o:3": {
      "barcode": "Geoffery10.Sakura.Avatar.SakuraTechwear",
      "title": "Sakura (Techwear)",
      "description": "",
      "unlockable": false,
      "redacted": false,
      "mainAsset": "97ebceef9af0d6c4d89fc39cc3cbeaa1",
      "tags": [
        "Anime",
        "Cyberpunk",
        "Techwear",
        "VRChat"
      ],
      "packedAssets": [
        {
          "title": "PreviewMesh",
          "guid": "a8b2cb0b658823549b983badadfe7a88"
        }
      ],
      "colliderBounds": {
        "center": {
          "x": 0.0,
          "y": 0.0,
          "z": 0.0
        },
        "extents": {
          "x": 0.0,
          "y": 0.0,
          "z": 0.0
        }
      },
      "isa": {
        "type": "t:2"
      }
    },
    "o:4": {
      "barcode": "Geoffery10.Sakura.Avatar.SakuraMjolnir",
      "title": "Sakura (Mjolnir)",
      "description": "",
      "unlockable": false,
      "redacted": false,
      "mainAsset": "e2c64ff5a1a9a554ba32f86b3cb8868e",
      "tags": [
        "Anime",
        "VRChat"
      ],
      "packedAssets": [
        {
          "title": "PreviewMesh",
          "guid": "be115fafd5ffe7b4fac9494c02630002"
        }
      ],
      "colliderBounds": {
        "center": {
          "x": 0.0,
          "y": 0.0,
          "z": 0.0
        },
        "extents": {
          "x": 0.0,
          "y": 0.0,
          "z": 0.0
        }
      },
      "isa": {
        "type": "t:2"
      }
    },
    "o:5": {
      "barcode": "Geoffery10.Sakura.Avatar.SakuraWarrior",
      "title": "Sakura (Warrior)",
      "description": "",
      "unlockable": false,
      "redacted": false,
      "mainAsset": "158464c9f73d6cc43befa8c893016f13",
      "tags": [
        "Anime",
        "Warrior",
        "VRChat"
      ],
      "packedAssets": [
        {
          "title": "PreviewMesh",
          "guid": "9b69c543a942a124dbe1964273fb6f5b"
        }
      ],
      "colliderBounds": {
        "center": {
          "x": 0.0,
          "y": 0.0,
          "z": 0.0
        },
        "extents": {
          "x": 0.0,
          "y": 0.0,
          "z": 0.0
        }
      },
      "isa": {
        "type": "t:2"
      }
    },
    "o:6": {
      "barcode": "Geoffery10.Sakura.Avatar.SakuraTiny",
      "title": "Sakura (Tiny)",
      "description": "",
      "unlockable": false,
      "redacted": false,
      "mainAsset": "62024b44eafc2864780b7009b3edca97",
      "tags": [
        "Anime",
        "Tiny",
        "VRChat"
      ],
      "packedAssets": [
        {
          "title": "PreviewMesh",
          "guid": "c49ed683f4eab1a41b6613d6ec64bff6"
        }
      ],
      "colliderBounds": {
        "center": {
          "x": 0.0,
          "y": 0.0,
          "z": 0.0
        },
        "extents": {
          "x": 0.0,
          "y": 0.0,
          "z": 0.0
        }
      },
      "isa": {
        "type": "t:2"
      }
    },
    "o:7": {
      "barcode": "Geoffery10.Sakura.Avatar.SakuraGiant",
      "title": "Sakura (Giant)",
      "description": "",
      "unlockable": false,
      "redacted": false,
      "mainAsset": "f26e3aadedf95094dbb702fc6c1c1263",
      "tags": [
        "Anime",
        "VRChat",
        "Giant"
      ],
      "packedAssets": [
        {
          "title": "PreviewMesh",
          "guid": "29197bfec1393a142b8a1e05e0d6dc76"
        }
      ],
      "colliderBounds": {
        "center": {
          "x": 0.0,
          "y": 0.0,
          "z": 0.0
        },
        "extents": {
          "x": 0.0,
          "y": 0.0,
          "z": 0.0
        }
      },
      "isa": {
        "type": "t:2"
      }
    },
    "o:8": {
      "barcode": "Geoffery10.Sakura.Avatar.SakuraMega",
      "title": "Sakura (Mega)",
      "description": "",
      "unlockable": false,
      "redacted": false,
      "mainAsset": "e62e82bfa15c96d41bbfa4360e73506d",
      "tags": [
        "Anime",
        "VRChat",
        "Giant"
      ],
      "packedAssets": [
        {
          "title": "PreviewMesh",
          "guid": "29d26d2d550f0dc45a31cda4beb97051"
        }
      ],
      "colliderBounds": {
        "center": {
          "x": 0.0,
          "y": 0.0,
          "z": 0.0
        },
        "extents": {
          "x": 0.0,
          "y": 0.0,
          "z": 0.0
        }
      },
      "isa": {
        "type": "t:2"
      }
    },
    "o:9": {
      "barcode": "Geoffery10.Sakura.Avatar.SakuraColossal",
      "title": "Sakura (Colossal)",
      "description": "",
      "unlockable": false,
      "redacted": false,
      "mainAsset": "60a39ae3b0b7f3d40aa34071dece66bc",
      "tags": [
        "Anime",
        "VRChat",
        "Giant"
      ],
      "packedAssets": [
        {
          "title": "PreviewMesh",
          "guid": "a1bcb2e397bd0fe44abfd9450dff63eb"
        }
      ],
      "colliderBounds": {
        "center": {
          "x": 0.0,
          "y": 0.0,
          "z": 0.0
        },
        "extents": {
          "x": 0.0,
          "y": 0.0,
          "z": 0.0
        }
      },
      "isa": {
        "type": "t:2"
      }
    },
    "o:10": {
      "barcode": "Geoffery10.Sakura.Avatar.SakuraRobot",
      "title": "Sakura (Robot)",
      "description": "Sakura Modified to have Giant Robot Arms",
      "unlockable": false,
      "redacted": false,
      "mainAsset": "f91a87df77eb75a458c6a704c28b6035",
      "tags": [
        "Anime",
        "VRChat",
        "Strong",
        "Heavy",
        "Cyberpunk",
        "Cyborg"
      ],
      "packedAssets": [
        {
          "title": "PreviewMesh",
          "guid": "f88e0b9c4751f5b4383e161996266693"
        }
      ],
      "colliderBounds": {
        "center": {
          "x": 0.0,
          "y": 0.0,
          "z": 0.0
        },
        "extents": {
          "x": 0.0,
          "y": 0.0,
          "z": 0.0
        }
      },
      "isa": {
        "type": "t:2"
      }
    },
    "o:11": {
      "barcode": "Geoffery10.Sakura.Avatar.SakuraARMS",
      "title": "Sakura (ARMS)",
      "description": "",
      "unlockable": false,
      "redacted": false,
      "mainAsset": "72a9347c627bb7d4c88dde414bbad7c7",
      "tags": [
        "Anime",
        "VRChat",
        "Cyberpunk",
        "Strong",
        "Heavy"
      ],
      "packedAssets": [
        {
          "title": "PreviewMesh",
          "guid": "61e9295e7b11c6d45920f2ad6439eaa7"
        }
      ],
      "colliderBounds": {
        "center": {
          "x": 0.0,
          "y": 0.0,
          "z": 0.0
        },
        "extents": {
          "x": 0.0,
          "y": 0.0,
          "z": 0.0
        }
      },
      "isa": {
        "type": "t:2"
      }
    },
    "o:12": {
      "barcode": "Geoffery10.Sakura.Avatar.SakuraArcade",
      "title": "Sakura (Arcade)",
      "description": "",
      "unlockable": false,
      "redacted": false,
      "mainAsset": "5e693754e4a091245a7f619dc934eb2a",
      "tags": [
        "Anime",
        "VRChat"
      ],
      "packedAssets": [
        {
          "title": "PreviewMesh",
          "guid": "0aad1405c050de24d9d722b558f81270"
        }
      ],
      "colliderBounds": {
        "center": {
          "x": 0.0,
          "y": 0.0,
          "z": 0.0
        },
        "extents": {
          "x": 0.0,
          "y": 0.0,
          "z": 0.0
        }
      },
      "isa": {
        "type": "t:2"
      }
    }
  },
  "types": {
    "t:1": {
      "type": "t:1",
      "fullname": "SLZ.Marrow.Warehouse.Pallet, SLZ.Marrow.SDK, Version=0.0.0.0, Culture=neutral, PublicKeyToken=null"
    },
    "t:2": {
      "type": "t:2",
      "fullname": "SLZ.Marrow.Warehouse.AvatarCrate, SLZ.Marrow.SDK, Version=0.0.0.0, Culture=neutral, PublicKeyToken=null"
    }
  }
}